<?xml version="1.0" standalone="no"?>
<!DOCTYPE svg PUBLIC "-//W3C//DTD SVG 1.1//EN" "http://www.w3.org/Graphics/SVG/1.1/DTD/svg11.dtd" >
<svg xmlns="http://www.w3.org/2000/svg" xmlns:xlink="http://www.w3.org/1999/xlink" version="1.1" viewBox="-10 0 466 1000">
   <path fill="currentColor"
d="M366 481q0 15 -15 15q-31 1 -59 9.5t-45 27.5t-17 54q0 24 11 51.5t21.5 60t10.5 75.5q0 49 -22.5 80t-54 48t-60 23t-40.5 6q-6 0 -6 -5v-22q0 -7 9 -10q46 -17 63.5 -32.5t17.5 -38.5t-12 -47.5t-28.5 -50.5t-28.5 -53t-12 -55q0 -50 21 -79.5t56.5 -46.5t78.5 -27
q-43 -11 -78.5 -27.5t-56.5 -46t-21 -79.5q0 -28 12 -55t28.5 -53t28.5 -50.5t12 -47.5t-17.5 -39t-63.5 -32q-9 -3 -9 -10v-22q0 -5 6 -5q12 0 40.5 6t60 23t54 47.5t22.5 80.5q0 42 -10.5 75.5t-21.5 60t-11 51.5q0 35 17 54t45 27t59 10q15 0 15 15v34z" />
</svg>
