<?xml version="1.0" standalone="no"?>
<!DOCTYPE svg PUBLIC "-//W3C//DTD SVG 1.1//EN" "http://www.w3.org/Graphics/SVG/1.1/DTD/svg11.dtd" >
<svg xmlns="http://www.w3.org/2000/svg" xmlns:xlink="http://www.w3.org/1999/xlink" version="1.1" viewBox="-10 0 524 1000">
   <path fill="currentColor"
d="M472 665q8 6 8 13q0 2 -2 8q-29 64 -85.5 95.5t-123.5 31.5q-56 0 -102 -24.5t-78 -65.5t-47 -92t-11 -105q7 -83 46 -136t94.5 -78t111.5 -25q66 0 107 20t63 52t30 67q1 4 1 7q0 8 -12 11l-115 30q-6 2 -9 2q-7 0 -7 -7q0 -4 0.5 -8t0.5 -11q0 -32 -20 -57t-62 -25
q-38 0 -60 24t-31.5 61.5t-9.5 78.5q0 49 13 93t42.5 71.5t80.5 27.5q40 0 74 -19.5t56 -53.5q4 -7 12 -7q5 0 9 3z" />
</svg>
