<?xml version="1.0" standalone="no"?>
<!DOCTYPE svg PUBLIC "-//W3C//DTD SVG 1.1//EN" "http://www.w3.org/Graphics/SVG/1.1/DTD/svg11.dtd" >
<svg xmlns="http://www.w3.org/2000/svg" xmlns:xlink="http://www.w3.org/1999/xlink" version="1.1" viewBox="-10 0 568 1000">
   <path fill="currentColor"
d="M283 35q68 0 118 24.5t78 67t28 96.5q0 56 -35 103.5t-83 73.5q63 34 101 83t38 123q0 63 -33.5 108.5t-91 70.5t-130.5 25q-109 0 -176 -54t-67 -150q0 -68 39 -110.5t97 -66.5q-31 -20 -58.5 -48t-44.5 -64.5t-17 -83.5q0 -59 31 -103.5t85 -69.5t121 -25zM283 97
q-48 0 -78.5 31.5t-30.5 93.5q0 35 21 63t50.5 47.5t52.5 27.5q52 -15 75 -53t23 -84q0 -32 -12 -60.5t-37 -47t-64 -18.5zM257 474q-64 19 -91 53.5t-27 78.5q0 36 14 68.5t44 52.5t76 20q65 0 94 -33t29 -95q0 -32 -14.5 -56.5t-37 -42.5t-46 -29.5t-41.5 -16.5z" />
</svg>
