<?xml version="1.0" standalone="no"?>
<!DOCTYPE svg PUBLIC "-//W3C//DTD SVG 1.1//EN" "http://www.w3.org/Graphics/SVG/1.1/DTD/svg11.dtd" >
<svg xmlns="http://www.w3.org/2000/svg" xmlns:xlink="http://www.w3.org/1999/xlink" version="1.1" viewBox="-10 0 610 1000">
   <path fill="currentColor"
d="M63 366q0 -15 15 -15h444q15 0 15 15v66q0 15 -15 15h-444q-15 0 -15 -15v-66zM63 597q0 -15 15 -15h444q15 0 15 15v67q0 15 -15 15h-444q-15 0 -15 -15v-67z" />
</svg>
