<?xml version="1.0" standalone="no"?>
<!DOCTYPE svg PUBLIC "-//W3C//DTD SVG 1.1//EN" "http://www.w3.org/Graphics/SVG/1.1/DTD/svg11.dtd" >
<svg xmlns="http://www.w3.org/2000/svg" xmlns:xlink="http://www.w3.org/1999/xlink" version="1.1" viewBox="-135 0 438 1000">
   <path fill="currentColor"
d="M107 539q0 -23 -3.5 -46t-15.5 -40t-40 -20q-12 -1 -12 -13v-34q0 -6 4 -8.5t11 -4.5q79 -26 121.5 -53.5t62.5 -48.5q2 -2 4 -2h3q2 0 2 2v467q0 46 -8 94.5t-30 90t-62.5 66.5t-106.5 25q-46 0 -77.5 -12.5t-50 -29.5t-26.5 -33t-8 -23q0 -13 11 -21l64 -46
q10 -7 14 -7t7.5 3t3.5 11q0 24 6 47.5t21 39t42 15.5q31 0 44 -21t16 -56t3 -76v-266zM174 60q26 0 51 25t25 50t-25 50t-51 25q-24 0 -50 -25q-25 -24 -25 -50q0 -25 25 -50t50 -25z" />
</svg>
