<?xml version="1.0" standalone="no"?>
<!DOCTYPE svg PUBLIC "-//W3C//DTD SVG 1.1//EN" "http://www.w3.org/Graphics/SVG/1.1/DTD/svg11.dtd" >
<svg xmlns="http://www.w3.org/2000/svg" xmlns:xlink="http://www.w3.org/1999/xlink" version="1.1" viewBox="-10 0 1182 1000">
   <path fill="currentColor"
d="M457 800q-15 0 -15 -15v-38q0 -15 15 -15q30 0 51.5 -22t21.5 -65v-84h-238l-47 84q-18 33 -18 55q0 16 12.5 25.5t29.5 9.5q11 0 13 4t2 11v35q0 15 -15 15h-249q-15 0 -15 -15v-35q0 -15 15 -15q43 0 73.5 -27t51.5 -63l273 -473q7 -12 11 -23t4 -18q0 -20 -45 -20h-1
q-15 0 -15 -15v-30q0 -16 15 -16h576q13 0 19 -5l6 -5q3 -3 8 -3q8 0 13 8l79 136q3 4 3 9q0 7 -8 12l-40 22q-7 4 -11 4q-7 0 -12 -9l-3 -5q-31 -52 -66.5 -72.5t-93.5 -20.5h-162v235h88q45 0 70 -17t25 -50v-7q0 -15 15 -15h30q15 0 15 15v227q0 15 -15 15h-30
q-15 0 -15 -15v-6q0 -34 -24.5 -50.5t-70.5 -16.5h-88v198q0 95 69 95h65q74 0 120.5 -14t78 -47t59.5 -89l3 -6q5 -8 13 -8q5 0 8 2l32 19q9 5 9 11q0 4 -3 10l-94 198q-4 9 -12 9q-5 0 -9 -4l-5 -5q-5 -5 -20 -5h-552zM341 474h188v-335zM662 -28q32 -41 50.5 -69
t31 -53.5t25.5 -57.5q4 -9 15.5 -11.5t21.5 -2.5q29 0 49.5 12.5t20.5 38.5q0 38 -24.5 68.5t-59 53t-65.5 36.5q-4 2 -8.5 4t-9.5 2q-4 0 -10 -3z" />
</svg>
