<?xml version="1.0" standalone="no"?>
<!DOCTYPE svg PUBLIC "-//W3C//DTD SVG 1.1//EN" "http://www.w3.org/Graphics/SVG/1.1/DTD/svg11.dtd" >
<svg xmlns="http://www.w3.org/2000/svg" xmlns:xlink="http://www.w3.org/1999/xlink" version="1.1" viewBox="-10 0 800 1000">
   <path fill="currentColor"
d="M691 645q16 41 31 68t43 27q10 0 12.5 3.5t2.5 11.5v30q0 15 -15 15h-307q-15 0 -15 -15v-30q0 -8 2.5 -11.5t12.5 -3.5q27 0 52.5 -20t25.5 -49q0 -7 -1.5 -13t-3.5 -13l-31 -85h-274l-30 85q-2 7 -3 13.5t-1 11.5q0 32 26 51t52 19q11 0 13 3.5t2 11.5v30q0 15 -15 15
h-249q-15 0 -15 -15v-30q0 -8 2.5 -11.5t12.5 -3.5q30 0 45.5 -28t29.5 -67l215 -582q4 -13 17 -13h121q13 0 17 12zM257 473h211l-108 -292zM272 -190q25 0 50 25t25 50t-25 50t-50 25t-50 -25t-25 -50q0 -14 6 -25t19 -25q24 -25 50 -25zM504 -190q26 0 51 25t25 50
t-25 50t-51 25q-25 0 -50 -25t-25 -50t25 -50t50 -25z" />
</svg>
