<?xml version="1.0" standalone="no"?>
<!DOCTYPE svg PUBLIC "-//W3C//DTD SVG 1.1//EN" "http://www.w3.org/Graphics/SVG/1.1/DTD/svg11.dtd" >
<svg xmlns="http://www.w3.org/2000/svg" xmlns:xlink="http://www.w3.org/1999/xlink" version="1.1" viewBox="-10 0 800 1000">
   <path fill="currentColor"
d="M691 645q16 41 31 68t43 27q10 0 12.5 3.5t2.5 11.5v30q0 15 -15 15h-307q-15 0 -15 -15v-30q0 -8 2.5 -11.5t12.5 -3.5q27 0 52.5 -20t25.5 -49q0 -7 -1.5 -13t-3.5 -13l-31 -85h-274l-30 85q-2 7 -3 13.5t-1 11.5q0 32 26 51t52 19q11 0 13 3.5t2 11.5v30q0 15 -15 15
h-249q-15 0 -15 -15v-30q0 -8 2.5 -11.5t12.5 -3.5q30 0 45.5 -28t29.5 -67l215 -582q4 -13 17 -13h121q13 0 17 12zM257 473h211l-108 -292zM390 0q-38 0 -69.5 -17.5t-50 -47t-18.5 -65.5t18.5 -65.5t50 -47t69.5 -17.5q39 0 70 17.5t49.5 47t18.5 65.5t-18.5 65.5
t-49.5 47t-70 17.5zM329 -130q0 27 16.5 43.5t44.5 16.5t44.5 -16.5t16.5 -43.5t-16.5 -43.5t-44.5 -16.5t-44.5 16.5t-16.5 43.5z" />
</svg>
