<?xml version="1.0" standalone="no"?>
<!DOCTYPE svg PUBLIC "-//W3C//DTD SVG 1.1//EN" "http://www.w3.org/Graphics/SVG/1.1/DTD/svg11.dtd" >
<svg xmlns="http://www.w3.org/2000/svg" xmlns:xlink="http://www.w3.org/1999/xlink" version="1.1" viewBox="-10 0 800 1000">
   <path fill="currentColor"
d="M353 50q120 0 210.5 45t141 129t50.5 200q0 119 -46 203.5t-130 128.5t-198 44h-336q-15 0 -15 -15v-30q0 -15 15 -15h7q33 0 50 -25t17 -70v-440q0 -95 -73 -95h-1q-15 0 -15 -15v-30q0 -15 15 -15h308zM278 650q0 39 13 62t61 23q119 0 185 -74t66 -237
q0 -145 -68 -229.5t-210 -84.5h-47v540zM348 -101q15 -28 36 -55t48.5 -45t59.5 -18q26 0 38 20.5t12 49.5q0 13 -2 23t-11 14q-33 12 -58.5 24.5t-53.5 31.5t-69 51q-40 -32 -68.5 -51t-54 -31.5t-58.5 -24.5q-9 -4 -11 -14t-2 -23q0 -29 12.5 -49.5t37.5 -20.5q33 0 60 18
t48.5 45t35.5 55z" />
</svg>
