<?xml version="1.0" standalone="no"?>
<!DOCTYPE svg PUBLIC "-//W3C//DTD SVG 1.1//EN" "http://www.w3.org/Graphics/SVG/1.1/DTD/svg11.dtd" >
<svg xmlns="http://www.w3.org/2000/svg" xmlns:xlink="http://www.w3.org/1999/xlink" version="1.1" viewBox="-10 0 765 1000">
   <path fill="currentColor"
d="M726 586q9 5 9 11q0 4 -3 10l-94 198q-4 9 -12 9q-5 0 -9 -4l-5 -5q-5 -5 -20 -5h-547q-15 0 -15 -15v-30q0 -15 15 -15h2q72 0 72 -95v-439q0 -95 -73 -95h-1q-15 0 -15 -15v-30q0 -16 15 -16h501q13 0 19 -5l6 -5q3 -3 8 -3q8 0 13 8l79 136q3 4 3 9q0 7 -8 12l-40 22
q-7 4 -11 4q-7 0 -12 -9l-3 -5q-31 -52 -66.5 -72.5t-93.5 -20.5h-162v235h88q45 0 70 -17t25 -50v-7q0 -15 15 -15h30q15 0 15 15v227q0 15 -15 15h-30q-15 0 -15 -15v-6q0 -34 -24.5 -50.5t-70.5 -16.5h-88v198q0 95 69 95h65q74 0 120.5 -14t78 -47t59.5 -89l3 -6
q5 -8 13 -8q5 0 8 2z" />
</svg>
