<?xml version="1.0" standalone="no"?>
<!DOCTYPE svg PUBLIC "-//W3C//DTD SVG 1.1//EN" "http://www.w3.org/Graphics/SVG/1.1/DTD/svg11.dtd" >
<svg xmlns="http://www.w3.org/2000/svg" xmlns:xlink="http://www.w3.org/1999/xlink" version="1.1" viewBox="-10 0 782 1000">
   <path fill="currentColor"
d="M206 389q0 55 12 112.5t38 106.5t67 78.5t99 29.5q22 0 48.5 -5.5t46 -19t19.5 -36.5v-52q0 -57 -16 -81t-40.5 -29t-50.5 -5h-7q-15 0 -15 -15v-30q0 -15 15 -15h315q15 0 15 15v30q0 15 -15 15h-8q-26 0 -26 33v108q-34 80 -113 132t-193 52q-84 0 -151 -29t-114 -81
t-72 -121t-25 -149q0 -50 11 -105t36.5 -106.5t68 -93t105 -66t148.5 -24.5q72 0 124.5 18t87.5 46t55.5 58t29.5 55.5t9 38.5q0 9 -4.5 13t-12.5 7l-122 43q-4 1 -8.5 2.5t-9.5 1.5q-4 0 -8 -1.5t-4 -8.5q0 -5 1 -12.5t1 -20.5q0 -69 -36.5 -115t-110.5 -46
q-57 0 -100 34.5t-66.5 95.5t-23.5 142zM386 -123q-14 28 -35.5 55t-48.5 45t-60 18q-25 0 -37.5 -21t-12.5 -49q0 -13 2 -23t11 -14q33 -13 58.5 -25t54 -31t68.5 -51q41 32 69 51t53.5 31t58.5 25q9 4 11 14t2 23q0 28 -12 49t-38 21q-32 0 -59.5 -18t-48.5 -45t-36 -55z
" />
</svg>
