<?xml version="1.0" standalone="no"?>
<!DOCTYPE svg PUBLIC "-//W3C//DTD SVG 1.1//EN" "http://www.w3.org/Graphics/SVG/1.1/DTD/svg11.dtd" >
<svg xmlns="http://www.w3.org/2000/svg" xmlns:xlink="http://www.w3.org/1999/xlink" version="1.1" viewBox="-10 0 908 1000">
   <path fill="currentColor"
d="M39 300q-15 0 -15 -15v-50q0 -15 15 -15h79v-15q0 -40 -14.5 -67.5t-52.5 -27.5h-6q-15 0 -15 -15v-30q0 -15 15 -15h307q15 0 15 15v30q0 15 -15 15h-6q-38 0 -53 27.5t-15 67.5v15h342v-15q0 -40 -15 -67.5t-53 -27.5h-6q-15 0 -15 -15v-30q0 -15 15 -15h307
q15 0 15 15v30q0 15 -15 15h-6q-38 0 -52.5 27.5t-14.5 67.5v15h79q15 0 15 15v50q0 15 -15 15h-79v345q0 40 14.5 67.5t52.5 27.5h6q15 0 15 15v30q0 15 -15 15h-307q-15 0 -15 -15v-30q0 -15 15 -15h6q38 0 53 -27.5t15 -67.5v-190h-342v190q0 40 15 67.5t53 27.5h6
q15 0 15 15v30q0 15 -15 15h-307q-15 0 -15 -15v-30q0 -15 15 -15h6q38 0 52.5 -27.5t14.5 -67.5v-345h-79zM278 376h342v-76h-342v76z" />
</svg>
