<?xml version="1.0" standalone="no"?>
<!DOCTYPE svg PUBLIC "-//W3C//DTD SVG 1.1//EN" "http://www.w3.org/Graphics/SVG/1.1/DTD/svg11.dtd" >
<svg xmlns="http://www.w3.org/2000/svg" xmlns:xlink="http://www.w3.org/1999/xlink" version="1.1" viewBox="-10 0 709 1000">
   <path fill="currentColor"
d="M680 586q9 4 9 12q0 1 -0.5 2.5t-2.5 6.5l-94 198q-4 9 -12 9q-2 0 -5 -1.5t-9 -7.5q-5 -5 -20 -5h-501q-15 0 -15 -15v-30q0 -15 15 -15q74 0 74 -95v-439q0 -95 -74 -95q-15 0 -15 -15v-30q0 -16 15 -16h303q19 0 19 16v30q0 15 -18 15h-71v523q0 95 69 95h39
q73 0 134 -31.5t104 -118.5l3 -6q5 -9 12 -9q5 0 9 3zM508 936q0 15 -15 15h-268q-15 0 -15 -15v-60q0 -15 15 -15h268q15 0 15 15v60z" />
</svg>
