<?xml version="1.0" standalone="no"?>
<!DOCTYPE svg PUBLIC "-//W3C//DTD SVG 1.1//EN" "http://www.w3.org/Graphics/SVG/1.1/DTD/svg11.dtd" >
<svg xmlns="http://www.w3.org/2000/svg" xmlns:xlink="http://www.w3.org/1999/xlink" version="1.1" viewBox="-10 0 810 1000">
   <path fill="currentColor"
d="M775 740q15 0 15 15v30q0 15 -15 15h-307q-15 0 -15 -15v-30q0 -15 15 -15h6q25 0 37 -14.5t12 -34.5q0 -23 -13 -46l-91 -170q-30 3 -65 3h-75v167q0 40 15 67.5t52 27.5h6q15 0 15 15v30q0 15 -15 15h-307q-15 0 -15 -15v-30q0 -15 15 -15h7q38 0 52.5 -27.5
t14.5 -67.5v-440q0 -41 -15.5 -68t-57.5 -27q-15 0 -15 -15v-30q0 -15 15 -15h367q81 0 141 29t93 77t33 105q0 51 -27 99t-92 79l109 206q20 37 41.5 66t58.5 29h5zM337 407q100 0 146.5 -39t46.5 -107q0 -69 -43 -110t-118 -41h-90v297h58zM340 -101q15 -28 36 -55
t48.5 -45t59.5 -18q26 0 38 20.5t12 49.5q0 13 -2 23t-11 14q-33 12 -58.5 24.5t-53.5 31.5t-69 51q-40 -32 -68.5 -51t-54 -31.5t-58.5 -24.5q-9 -4 -11 -14t-2 -23q0 -29 12.5 -49.5t37.5 -20.5q33 0 60 18t48.5 45t35.5 55z" />
</svg>
