<?xml version="1.0" standalone="no"?>
<!DOCTYPE svg PUBLIC "-//W3C//DTD SVG 1.1//EN" "http://www.w3.org/Graphics/SVG/1.1/DTD/svg11.dtd" >
<svg xmlns="http://www.w3.org/2000/svg" xmlns:xlink="http://www.w3.org/1999/xlink" version="1.1" viewBox="-10 0 897 1000">
   <path fill="currentColor"
d="M252 813q-34 0 -72.5 -14t-72.5 -45t-55.5 -81.5t-21.5 -123.5q0 -93 33.5 -150.5t87 -84.5t113.5 -27q49 0 90 15t72 43q28 -11 46 -21t31 -19q14 -9 22 -16q3 -2 5 -2h1q2 0 2 2v22q25 -11 52 -16.5t55 -5.5q50 0 88 19t64.5 49t40 63t13.5 62q0 8 -9 12l-290 127
q17 42 54.5 75t95.5 33q32 0 67 -18t61 -56q3 -5 8 -5t10.5 3t29.5 17q4 3 4 8q0 7 -6 17q-28 52 -76 84.5t-125 32.5q-41 0 -76.5 -9.5t-65.5 -26.5q-43 4 -70 14t-53 21q-4 2 -7 2h-2q-3 0 -3 -3l11 -89q-5 13 -21.5 35t-48 39.5t-82.5 17.5zM297 725q36 0 56.5 -15.5
t29.5 -31.5t10 -19v-201q-3 -20 -14.5 -44.5t-34.5 -42t-62 -17.5q-48 0 -75 23.5t-37.5 60.5t-10.5 79q0 96 38.5 152t99.5 56zM535 559l161 -81q0 -48 -23 -79t-58 -31q-41 0 -65 32.5t-24 81.5q0 15 1.5 37t7.5 40z" />
</svg>
