<?xml version="1.0" standalone="no"?>
<!DOCTYPE svg PUBLIC "-//W3C//DTD SVG 1.1//EN" "http://www.w3.org/Graphics/SVG/1.1/DTD/svg11.dtd" >
<svg xmlns="http://www.w3.org/2000/svg" xmlns:xlink="http://www.w3.org/1999/xlink" version="1.1" viewBox="-10 0 610 1000">
   <path fill="currentColor"
d="M419 630q-35 0 -63.5 -13.5t-51.5 -33t-43 -39t-39.5 -33t-40.5 -13.5q-35 0 -50.5 24t-15.5 59q0 18 -15 18h-66q-15 0 -15 -14q0 -23 5 -53.5t21.5 -60.5t49 -49.5t86.5 -19.5q35 0 63.5 13.5t51.5 33t43 39t39.5 33t40.5 13.5q35 0 50.5 -24.5t15.5 -58.5
q0 -18 15 -18h66q15 0 15 14q0 22 -5 53t-21.5 61t-49 49.5t-86.5 19.5z" />
</svg>
