<?xml version="1.0" standalone="no"?>
<!DOCTYPE svg PUBLIC "-//W3C//DTD SVG 1.1//EN" "http://www.w3.org/Graphics/SVG/1.1/DTD/svg11.dtd" >
<svg xmlns="http://www.w3.org/2000/svg" xmlns:xlink="http://www.w3.org/1999/xlink" version="1.1" viewBox="-10 0 619 1000">
   <path fill="currentColor"
d="M76 270q0 -27 -3.5 -52t-15.5 -42.5t-40 -20.5q-12 -1 -12 -13v-34q0 -6 3.5 -8.5t10.5 -4.5q80 -26 124 -52t64 -41q3 -2 5 -2h1q2 0 2 2v334q14 -20 46.5 -34.5t74.5 -14.5q41 0 83.5 14t78.5 45t58.5 81.5t22.5 123.5q0 76 -31.5 135.5t-90.5 93t-140 33.5
q-66 0 -121 -22.5t-87.5 -73t-32.5 -132.5v-315zM215 606q0 49 16 80t42 46t54 15q49 0 75.5 -23.5t37 -61.5t10.5 -79q0 -96 -40.5 -152t-117.5 -56q-42 0 -77 26v205z" />
</svg>
