<?xml version="1.0" standalone="no"?>
<!DOCTYPE svg PUBLIC "-//W3C//DTD SVG 1.1//EN" "http://www.w3.org/Graphics/SVG/1.1/DTD/svg11.dtd" >
<svg xmlns="http://www.w3.org/2000/svg" xmlns:xlink="http://www.w3.org/1999/xlink" version="1.1" viewBox="-10 0 525 1000">
   <path fill="currentColor"
d="M175 621q17 42 54.5 75t95.5 33q32 0 67 -18t61 -56q3 -5 8 -5t10.5 3t29.5 17q4 3 4 8q0 7 -6 17q-28 52 -76 85t-125 33q-83 0 -143 -37t-92.5 -98t-32.5 -133q0 -69 20.5 -118.5t54.5 -80t76.5 -45t86.5 -14.5q50 0 88 19.5t64.5 49.5t40 63.5t13.5 62.5q0 8 -9 12z
M324 478q0 -48 -23 -79t-58 -31q-41 0 -65 32.5t-24 81.5q0 15 1.5 37t7.5 40zM253 149q15 -28 36 -55t48.5 -45t59.5 -18q26 0 38 20.5t12 49.5q0 13 -2 23t-11 14q-33 12 -58.5 24.5t-53.5 31.5t-69 51q-40 -32 -68.5 -51t-54 -31.5t-58.5 -24.5q-9 -4 -11 -14t-2 -23
q0 -29 12.5 -49.5t37.5 -20.5q33 0 60 18t48.5 45t35.5 55z" />
</svg>
