<?xml version="1.0" standalone="no"?>
<!DOCTYPE svg PUBLIC "-//W3C//DTD SVG 1.1//EN" "http://www.w3.org/Graphics/SVG/1.1/DTD/svg11.dtd" >
<svg xmlns="http://www.w3.org/2000/svg" xmlns:xlink="http://www.w3.org/1999/xlink" version="1.1" viewBox="-10 0 720 1000">
   <path fill="currentColor"
d="M53 811q-13 0 -13 -9q0 -4 4 -9l553 -719q8 -9 18 -9h42q13 0 13 8q0 5 -4 10l-554 719q-6 9 -15 9h-44z" />
</svg>
