<?xml version="1.0" standalone="no"?>
<!DOCTYPE svg PUBLIC "-//W3C//DTD SVG 1.1//EN" "http://www.w3.org/Graphics/SVG/1.1/DTD/svg11.dtd" >
<svg xmlns="http://www.w3.org/2000/svg" xmlns:xlink="http://www.w3.org/1999/xlink" version="1.1" viewBox="-10 0 539 1000">
   <path fill="currentColor"
d="M506 270q4 -1 8 -1q5 0 5 15q0 49 -18.5 76t-52.5 27q24 40 24 92q0 53 -26.5 96.5t-75.5 69t-118 25.5q-70 0 -121 -28q-13 10 -13 25t11 25.5t42.5 17t92.5 9.5q44 2 85.5 9t74.5 22.5t52.5 43.5t19.5 73q0 41 -21.5 69.5t-58 45.5t-80.5 25t-89 8q-61 0 -112.5 -13
t-83 -40t-31.5 -69q0 -33 17.5 -56.5t42.5 -37.5q-51 -32 -51 -91q0 -34 17.5 -58t44.5 -35q-59 -54 -59 -136q0 -53 26.5 -96.5t76 -69.5t117.5 -26q42 0 76.5 10.5t61.5 28.5q5 3 8.5 3.5t5.5 0.5q8 0 13 -5.5t5 -20.5v-3q0 -13 11 -15zM252 347q-38 0 -59.5 21t-30 51.5
t-8.5 59.5t8.5 59.5t30 51.5t59.5 21t57.5 -21t26.5 -51.5t7 -59.5t-7 -59.5t-26.5 -51.5t-57.5 -21zM248 946q74 0 113.5 -14t39.5 -37q0 -32 -42 -42.5t-118 -14.5q-54 -3 -93 -12q-28 19 -28 53q0 15 11 30.5t39 26t78 10.5zM257 149q15 -28 36 -55t48.5 -45t59.5 -18
q26 0 38 20.5t12 49.5q0 13 -2 23t-11 14q-33 12 -58.5 24.5t-53.5 31.5t-69 51q-40 -32 -68.5 -51t-54 -31.5t-58.5 -24.5q-9 -4 -11 -14t-2 -23q0 -29 12.5 -49.5t37.5 -20.5q33 0 60 18t48.5 45t35.5 55z" />
</svg>
