<?xml version="1.0" standalone="no"?>
<!DOCTYPE svg PUBLIC "-//W3C//DTD SVG 1.1//EN" "http://www.w3.org/Graphics/SVG/1.1/DTD/svg11.dtd" >
<svg xmlns="http://www.w3.org/2000/svg" xmlns:xlink="http://www.w3.org/1999/xlink" version="1.1" viewBox="-10 0 413 1000">
   <path fill="currentColor"
d="M80 482q0 -4 5 -11l194 -200q5 -5 11 -5q5 0 10 5l27 25q6 6 6 11q0 3 -5 10l-128 165l128 165q5 7 5 10q0 5 -6 11l-27 25q-5 5 -10 5q-6 0 -11 -5l-194 -200q-5 -7 -5 -11z" />
</svg>
