<?xml version="1.0" standalone="no"?>
<!DOCTYPE svg PUBLIC "-//W3C//DTD SVG 1.1//EN" "http://www.w3.org/Graphics/SVG/1.1/DTD/svg11.dtd" >
<svg xmlns="http://www.w3.org/2000/svg" xmlns:xlink="http://www.w3.org/1999/xlink" version="1.1" viewBox="-10 0 357 1000">
   <path fill="currentColor"
d="M317 740q15 0 15 15v30q0 15 -17 15h-283q-17 0 -17 -15v-30q0 -15 15 -15h2q37 0 54.5 -27.5t17.5 -67.5v-106q0 -23 -3.5 -46t-15.5 -40t-40 -20q-12 -1 -12 -13v-34q0 -6 4 -8.5t11 -4.5q79 -26 121.5 -53.5t62.5 -48.5q2 -2 4 -2h3q2 0 2 2v373q0 40 18 68t55 28h3z
M174 60q26 0 51 25t25 50t-25 50t-51 25q-24 0 -50 -25q-25 -24 -25 -50q0 -25 25 -50t50 -25z" />
</svg>
