<?xml version="1.0" standalone="no"?>
<!DOCTYPE svg PUBLIC "-//W3C//DTD SVG 1.1//EN" "http://www.w3.org/Graphics/SVG/1.1/DTD/svg11.dtd" >
<svg xmlns="http://www.w3.org/2000/svg" xmlns:xlink="http://www.w3.org/1999/xlink" version="1.1" viewBox="-30 0 408 1000">
   <path fill="currentColor"
d="M317 740q15 0 15 15v30q0 15 -17 15h-283q-17 0 -17 -15v-30q0 -15 15 -15h2q37 0 54.5 -27.5t17.5 -67.5v-106q0 -23 -3.5 -46t-15.5 -40t-40 -20q-12 -1 -12 -13v-34q0 -6 4 -8.5t11 -4.5q79 -26 121.5 -53.5t62.5 -48.5q2 -2 4 -2h3q2 0 2 2v373q0 40 18 68t55 28h3z
M174 127q-14 28 -35.5 55t-48.5 45t-60 18q-25 0 -37.5 -21t-12.5 -49q0 -13 2 -23t11 -14q33 -13 58.5 -25t54 -31t68.5 -51q41 32 69 51t53.5 31t58.5 25q9 4 11 14t2 23q0 28 -12 49t-38 21q-32 0 -59.5 -18t-48.5 -45t-36 -55z" />
</svg>
