<?xml version="1.0" standalone="no"?>
<!DOCTYPE svg PUBLIC "-//W3C//DTD SVG 1.1//EN" "http://www.w3.org/Graphics/SVG/1.1/DTD/svg11.dtd" >
<svg xmlns="http://www.w3.org/2000/svg" xmlns:xlink="http://www.w3.org/1999/xlink" version="1.1" viewBox="-10 0 462 1000">
   <path fill="currentColor"
d="M317 740q15 0 15 15v30q0 15 -17 15h-283q-17 0 -17 -15v-30q0 -15 15 -15h2q37 0 54.5 -27.5t17.5 -67.5v-375q0 -28 -3.5 -53t-15.5 -42.5t-40 -20.5q-12 -1 -12 -13v-34q0 -6 4 -8t11 -5q71 -26 113.5 -48.5t70.5 -43.5q2 -2 4 -2h3q2 0 2 2v642q0 40 18 68t55 28h3z
M303 308q5 -17 8 -44.5t3 -58.5q0 -19 -1.5 -38.5t-3.5 -38.5v-3q0 -10 9 -16q15 -11 32.5 -18t32.5 -7q17 0 28 9.5t11 32.5q0 22 -8.5 55.5t-23 65.5t-32.5 52q-3 4 -6.5 5t-8.5 2z" />
</svg>
