<?xml version="1.0" standalone="no"?>
<!DOCTYPE svg PUBLIC "-//W3C//DTD SVG 1.1//EN" "http://www.w3.org/Graphics/SVG/1.1/DTD/svg11.dtd" >
<svg xmlns="http://www.w3.org/2000/svg" xmlns:xlink="http://www.w3.org/1999/xlink" version="1.1" viewBox="-10 0 660 1000">
   <path fill="currentColor"
d="M604 374q0 94 -21.5 174t-64.5 139.5t-106.5 92.5t-148.5 33q-52 0 -92.5 -14t-68.5 -35.5t-42 -43t-14 -36.5q0 -8 5 -13l88 -81q5 -5 8 -2q2 1 2.5 7.5t1.5 12.5q8 61 38.5 93.5t87.5 32.5q77 0 120.5 -55t57.5 -168q-33 20 -70 25.5t-66 5.5q-84 0 -143 -36t-90.5 -94
t-31.5 -125q0 -77 37.5 -133t100.5 -86t140 -30q66 0 117 27t85.5 74.5t52 108t17.5 126.5zM461 320q-1 -29 -10.5 -64t-28 -67.5t-47.5 -53.5t-68 -21q-42 0 -67 18.5t-36.5 49t-11.5 67.5q0 30 7.5 67t24 71t44 56.5t68.5 22.5q50 0 77.5 -23t38.5 -56.5t9 -66.5z" />
</svg>
