<?xml version="1.0" standalone="no"?>
<!DOCTYPE svg PUBLIC "-//W3C//DTD SVG 1.1//EN" "http://www.w3.org/Graphics/SVG/1.1/DTD/svg11.dtd" >
<svg xmlns="http://www.w3.org/2000/svg" xmlns:xlink="http://www.w3.org/1999/xlink" version="1.1" viewBox="-10 0 584 1000">
   <path fill="currentColor"
d="M281 287q57 0 105.5 22.5t83.5 61t54.5 86t19.5 98.5q0 74 -35 132.5t-92 92t-124 33.5q-57 0 -105 -22t-83.5 -59.5t-55 -86t-19.5 -101.5q0 -73 34 -131t91 -92t126 -34zM324 732q19 0 42 -10t40.5 -35t17.5 -69q0 -35 -13.5 -77.5t-37 -82t-55 -65t-68.5 -25.5
q-41 0 -71 30.5t-30 83.5q0 34 13.5 77t37 82.5t55.5 65t69 25.5zM437 170q0 15 -15 15h-268q-15 0 -15 -15v-60q0 -15 15 -15h268q15 0 15 15v60z" />
</svg>
