<?xml version="1.0" standalone="no"?>
<!DOCTYPE svg PUBLIC "-//W3C//DTD SVG 1.1//EN" "http://www.w3.org/Graphics/SVG/1.1/DTD/svg11.dtd" >
<svg xmlns="http://www.w3.org/2000/svg" xmlns:xlink="http://www.w3.org/1999/xlink" version="1.1" viewBox="-10 0 584 1000">
   <path fill="currentColor"
d="M130 800q-4 5 -8.5 9t-11.5 4h-82q-8 0 -11 -5.5t2 -12.5l70 -81q-28 -36 -43.5 -79.5t-15.5 -90.5q0 -73 34 -131t91 -92t126 -34q39 0 74.5 11t64.5 31l25 -29q5 -6 9 -9.5t11 -3.5h83q8 0 10.5 5t-3.5 13l-71 82q29 36 44.5 79.5t15.5 88.5q0 74 -35 132.5t-92 92
t-124 33.5q-39 0 -74 -10.5t-65 -30.5zM149 482q0 57 32 125l163 -189q-20 -23 -44 -36.5t-50 -13.5q-41 0 -71 30.5t-30 83.5zM324 732q19 0 42 -10t40.5 -35t17.5 -69q0 -57 -31 -124l-163 189q21 22 44.5 35.5t49.5 13.5z" />
</svg>
