<?xml version="1.0" standalone="no"?>
<!DOCTYPE svg PUBLIC "-//W3C//DTD SVG 1.1//EN" "http://www.w3.org/Graphics/SVG/1.1/DTD/svg11.dtd" >
<svg xmlns="http://www.w3.org/2000/svg" xmlns:xlink="http://www.w3.org/1999/xlink" version="1.1" viewBox="-10 0 323 1000">
   <path fill="currentColor"
d="M118 644q19 -19 38 -19q20 0 39 19l39 39q19 19 19 39t-19 39l-39 39q-19 19 -39 19q-19 0 -38 -19l-40 -39q-18 -18 -18 -39t18 -39z" />
</svg>
