<?xml version="1.0" standalone="no"?>
<!DOCTYPE svg PUBLIC "-//W3C//DTD SVG 1.1//EN" "http://www.w3.org/Graphics/SVG/1.1/DTD/svg11.dtd" >
<svg xmlns="http://www.w3.org/2000/svg" xmlns:xlink="http://www.w3.org/1999/xlink" version="1.1" viewBox="-10 0 326 1000">
   <path fill="currentColor"
d="M81 243q-9 -9 -15 -22.5t-6 -32.5q0 -14 3 -30q6 -30 29 -62t51.5 -60.5t52.5 -46t33 -17.5q4 0 11 2.5t29 12.5q-36 28 -57.5 60.5t-21.5 56.5q0 14 8 22l39 39q19 19 19 39t-19 39l-39 39q-19 19 -39 19t-39 -19z" />
</svg>
