<?xml version="1.0" standalone="no"?>
<!DOCTYPE svg PUBLIC "-//W3C//DTD SVG 1.1//EN" "http://www.w3.org/Graphics/SVG/1.1/DTD/svg11.dtd" >
<svg xmlns="http://www.w3.org/2000/svg" xmlns:xlink="http://www.w3.org/1999/xlink" version="1.1" viewBox="-10 0 540 1000">
   <path fill="currentColor"
d="M231 405q27 -58 75 -88t101 -30q47 0 80 26t33 77q0 22 -4 39t-22 25l-94 38q-6 2 -9 2q-9 0 -9 -9q0 -3 2 -9q6 -14 7.5 -27t1.5 -23q0 -27 -13.5 -39.5t-33.5 -12.5q-23 0 -43 14t-35 34t-22 39v184q0 40 18 67.5t55 27.5h2q15 0 15 15v30q0 15 -15 15h-291
q-15 0 -15 -15v-30q0 -15 15 -15h2q37 0 55 -27.5t18 -67.5v-126q0 -27 -3.5 -52t-15.5 -42.5t-40 -20.5q-12 -1 -12 -13v-34q0 -10 15 -13q71 -11 124.5 -35t72.5 -38q3 -2 5 -2h2q2 0 2 2q0 1 -2.5 15t-6 35.5t-8 44t-7.5 39.5zM270 149q15 -28 36 -55t48.5 -45t59.5 -18
q26 0 38 20.5t12 49.5q0 13 -2 23t-11 14q-33 12 -58.5 24.5t-53.5 31.5t-69 51q-40 -32 -68.5 -51t-54 -31.5t-58.5 -24.5q-9 -4 -11 -14t-2 -23q0 -29 12.5 -49.5t37.5 -20.5q33 0 60 18t48.5 45t35.5 55z" />
</svg>
