<?xml version="1.0" standalone="no"?>
<!DOCTYPE svg PUBLIC "-//W3C//DTD SVG 1.1//EN" "http://www.w3.org/Graphics/SVG/1.1/DTD/svg11.dtd" >
<svg xmlns="http://www.w3.org/2000/svg" xmlns:xlink="http://www.w3.org/1999/xlink" version="1.1" viewBox="-10 0 552 1000">
   <path fill="currentColor"
d="M452 455q-6 3 -10 3q-7 0 -13 -7q-45 -57 -94 -80t-85 -23q-26 0 -48 11t-22 40q0 22 16.5 36.5t42.5 23.5t53 16q39 9 78.5 21t72.5 31.5t53.5 48.5t20.5 73q0 47 -25.5 84t-72.5 58.5t-112 21.5q-31 0 -60.5 -7.5t-55.5 -19.5q-6 -3 -9 -3q-7 0 -7 7q0 2 2 8t2 8
q0 8 -12 8h-36q-11 0 -17 -10l-86 -161q-3 -6 -3 -9q0 -7 8 -12l31 -18q6 -3 9 -3q6 0 11 9q49 73 107.5 104t119.5 31q96 0 96 -57q0 -26 -23.5 -43t-58 -28t-69.5 -19q-64 -16 -102 -36.5t-57 -44t-25.5 -47t-6.5 -45.5q0 -60 46 -99t125 -39q47 0 83 12.5t50 20.5
q4 2 6 2q3 0 3 -4q0 -3 -3 -12l-1.5 -7.5l-0.5 -4.5q0 -10 13 -10h26q13 0 17 11l50 127q3 6 3 10q0 7 -8 11zM276 127q-14 28 -35.5 55t-48.5 45t-60 18q-25 0 -37.5 -21t-12.5 -49q0 -13 2 -23t11 -14q33 -13 58.5 -25t54 -31t68.5 -51q41 32 69 51t53.5 31t58.5 25
q9 4 11 14t2 23q0 28 -12 49t-38 21q-32 0 -59.5 -18t-48.5 -45t-36 -55z" />
</svg>
