<?xml version="1.0" standalone="no"?>
<!DOCTYPE svg PUBLIC "-//W3C//DTD SVG 1.1//EN" "http://www.w3.org/Graphics/SVG/1.1/DTD/svg11.dtd" >
<svg xmlns="http://www.w3.org/2000/svg" xmlns:xlink="http://www.w3.org/1999/xlink" version="1.1" viewBox="-10 0 411 1000">
   <path fill="currentColor"
d="M175 13q8 0 12.5 4t2.5 12l-84 265q-2 7 -5 11t-11 4h-44q-17 0 -16 -15l36 -265q1 -16 15 -16h94zM355 13q8 0 12.5 4t2.5 12l-84 265q-2 7 -5 11t-11 4h-44q-17 0 -16 -15l36 -265q1 -16 15 -16h94z" />
</svg>
