<?xml version="1.0" standalone="no"?>
<!DOCTYPE svg PUBLIC "-//W3C//DTD SVG 1.1//EN" "http://www.w3.org/Graphics/SVG/1.1/DTD/svg11.dtd" >
<svg xmlns="http://www.w3.org/2000/svg" xmlns:xlink="http://www.w3.org/1999/xlink" version="1.1" viewBox="-10 0 798 1000">
   <path fill="currentColor"
d="M649 207q-3 1 -6 2.5t-6 1.5q-8 0 -17 -12q-64 -80 -128.5 -114.5t-115.5 -34.5q-25 0 -49.5 7t-41 25.5t-16.5 53.5q0 31 23 53t59.5 37.5t74.5 26.5q57 17 112.5 36.5t100.5 47t72 67t27 95.5q0 100 -76 164q35 26 55.5 62t20.5 85q0 66 -34.5 117.5t-99.5 81.5
t-157 30q-87 0 -161 -36q-8 -4 -15 -4q-13 0 -7 21q3 7 3 12q0 11 -17 11h-50q-18 0 -25 -14l-121 -227q-4 -8 -4 -12q0 -11 11 -17l44 -25q3 -2 6 -3t6 -1q10 0 17 12q68 103 150.5 153t168.5 50q65 0 100 -29.5t35 -74.5q0 -39 -18 -63t-48.5 -39t-68.5 -25.5t-78 -22.5
q-86 -26 -138.5 -56t-80 -62t-37 -64t-9.5 -61q0 -49 24 -86t67 -60q-57 -41 -74 -84t-17 -81q0 -84 68.5 -132.5t184.5 -48.5q51 0 88.5 12t60 24t28.5 12q10 0 5.5 -12t-4.5 -27t18 -15h36q18 0 25 17l70 179q2 4 3 7.5t1 6.5q0 9 -11 15zM269 447q0 31 23 53t59.5 37.5
t74.5 26.5q35 10 70 21t67 24q25 -27 25 -65q0 -39 -18 -63t-48.5 -39t-68.5 -25.5t-78 -22.5q-34 -11 -63 -21q-19 9 -31 26.5t-12 47.5z" />
</svg>
