<?xml version="1.0" standalone="no"?>
<!DOCTYPE svg PUBLIC "-//W3C//DTD SVG 1.1//EN" "http://www.w3.org/Graphics/SVG/1.1/DTD/svg11.dtd" >
<svg xmlns="http://www.w3.org/2000/svg" xmlns:xlink="http://www.w3.org/1999/xlink" version="1.1" viewBox="-10 0 630 1000">
   <path fill="currentColor"
d="M557 254q15 0 15 15v58q0 11 -5 19q-28 43 -66 97t-78.5 115.5t-75.5 124.5t-57 124t-22 115q0 20 3.5 39t11.5 37q3 7 3 10q0 11 -10 10l-164 -31q-19 -4 -23.5 -15t-4.5 -25q0 -35 24 -87t63.5 -113.5t86.5 -124t92.5 -119t81.5 -99.5t54 -64h-200q-18 0 -47 1.5
t-59.5 5.5t-54 12.5t-32.5 23.5q-4 9 -7 11.5t-8 2.5q-4 0 -9 -3l-31 -18q-8 -5 -8 -12q0 -4 3 -8l73 -108q5 -8 12 -8q2 0 5 1t9 7q7 6 19 6h406z" />
</svg>
