<?xml version="1.0" standalone="no"?>
<!DOCTYPE svg PUBLIC "-//W3C//DTD SVG 1.1//EN" "http://www.w3.org/Graphics/SVG/1.1/DTD/svg11.dtd" >
<svg xmlns="http://www.w3.org/2000/svg" xmlns:xlink="http://www.w3.org/1999/xlink" version="1.1" viewBox="-10 0 669 1000">
   <path fill="currentColor"
d="M301 745q83 0 125 -43.5t42 -108.5q0 -74 -45.5 -104.5t-119.5 -30.5q-26 0 -48 4.5t-35 4.5q-14 0 -17 -13l-7 -37q-1 -6 4 -9.5t12 -4.5q68 -14 120.5 -31.5t82 -49.5t29.5 -90q0 -61 -32 -88t-73 -27q-60 0 -98.5 45t-38.5 116q0 13 1 20t1 13q0 10 -12 10
q-5 0 -9 -1.5t-9 -2.5l-122 -43q-17 -6 -17 -20q0 -13 11 -39t33 -56t57.5 -57.5t83.5 -45.5t111 -18q82 0 143.5 22.5t96 66t34.5 106.5q0 73 -48 114t-119 56q54 4 97 25.5t68.5 60.5t25.5 98q0 73 -44 123.5t-119 76.5t-169 26q-60 0 -109 -14.5t-84.5 -36t-54.5 -43.5
t-19 -37q0 -8 5 -13l85 -79q5 -5 9.5 -5.5t5.5 12.5q5 40 26 74t56.5 54t83.5 20z" />
</svg>
