<?xml version="1.0" standalone="no"?>
<!DOCTYPE svg PUBLIC "-//W3C//DTD SVG 1.1//EN" "http://www.w3.org/Graphics/SVG/1.1/DTD/svg11.dtd" >
<svg xmlns="http://www.w3.org/2000/svg" xmlns:xlink="http://www.w3.org/1999/xlink" version="1.1" viewBox="-10 0 686 1000">
   <path fill="currentColor"
d="M353 715q64 0 106.5 -10.5t73 -40t58.5 -85.5l3 -6q5 -8 13 -8q5 0 8 2l32 19q9 5 9 11q0 4 -3 10l-94 198q-4 9 -12 9q-5 0 -9 -4l-5 -5q-3 -3 -6.5 -4t-12.5 -1h-474q-15 0 -15 -15v-28q0 -10 3 -16q23 -43 61 -78.5t84 -67.5t92 -65t84 -70.5t61.5 -83t23.5 -102.5
q0 -71 -29 -114t-85 -43q-60 0 -93.5 45t-33.5 116q0 13 1 20t1 13q0 10 -12 10q-5 0 -9 -1.5t-9 -2.5l-122 -43q-17 -6 -17 -20q0 -13 10 -39t30.5 -56t54.5 -57.5t81 -45.5t110 -18q83 0 150 26t106.5 78.5t39.5 132.5q0 61 -27.5 112t-72 93t-96 77t-100.5 63.5t-85.5 52
t-50.5 42.5h177z" />
</svg>
