<?xml version="1.0" standalone="no"?>
<!DOCTYPE svg PUBLIC "-//W3C//DTD SVG 1.1//EN" "http://www.w3.org/Graphics/SVG/1.1/DTD/svg11.dtd" >
<svg xmlns="http://www.w3.org/2000/svg" xmlns:xlink="http://www.w3.org/1999/xlink" version="1.1" viewBox="-10 0 424 1000">
   <path fill="currentColor"
d="M396 300q8 3 8 8q0 3 -3 8l-57 93q-4 6 -9 6q-2 0 -4 -1t-7 -5q-3 -3 -6 -3.5t-7 -0.5h-277q-11 0 -11 -11v-22q0 -7 2 -12q16 -32 42.5 -59t56.5 -51t57 -47.5t44 -48t17 -52.5q0 -33 -14.5 -50t-39.5 -17q-21 0 -40.5 11.5t-19.5 40.5q0 17 4.5 28.5t9 19t4.5 15.5
t-7 7l-79 -18q-15 -3 -19 -14q-6 -15 -6 -28q0 -26 19.5 -50.5t55 -40t82.5 -15.5q77 0 118 27.5t41 84.5q0 34 -17.5 60.5t-46 47.5t-60.5 40.5t-62 41t-51 48.5h71q19 0 44 -1t50 -5t45.5 -13.5t30.5 -27.5l3 -3q3 -7 9 -7q2 0 6 2z" />
</svg>
