<?xml version="1.0" standalone="no"?>
<!DOCTYPE svg PUBLIC "-//W3C//DTD SVG 1.1//EN" "http://www.w3.org/Graphics/SVG/1.1/DTD/svg11.dtd" >
<svg xmlns="http://www.w3.org/2000/svg" xmlns:xlink="http://www.w3.org/1999/xlink" version="1.1" viewBox="-10 0 385 1000">
   <path fill="currentColor"
d="M289 60q26 0 51 25t25 50t-25 50t-51 25q-24 0 -50 -25q-25 -24 -25 -50q0 -25 25 -50t50 -25z" />
</svg>
