<?xml version="1.0" standalone="no"?>
<!DOCTYPE svg PUBLIC "-//W3C//DTD SVG 1.1//EN" "http://www.w3.org/Graphics/SVG/1.1/DTD/svg11.dtd" >
<svg xmlns="http://www.w3.org/2000/svg" xmlns:xlink="http://www.w3.org/1999/xlink" version="1.1" viewBox="-10 0 832 1000">
   <path fill="currentColor"
d="M405 38q79 0 148.5 31t122 85.5t82 125.5t29.5 151t-29 149.5t-80.5 121.5t-118.5 81.5t-143 29.5q-79 0 -148.5 -31t-121.5 -85.5t-81.5 -125.5t-29.5 -150q0 -78 28 -147t78.5 -122.5t117.5 -83.5t146 -30zM394 126q-100 0 -155 66.5t-55 175.5q0 43 9 92t27.5 95.5
t47.5 84.5t68 61t90 23q68 0 115.5 -30.5t72 -85t24.5 -125.5q0 -39 -8.5 -87t-27 -95.5t-47 -87t-68.5 -63.5t-93 -24zM434 782q4 6 4 11q0 7 -12 7q-4 0 -19.5 4.5t-33.5 15t-31 29t-13 45.5q0 35 21 58.5t59 23.5q18 0 36 -6.5t32 -13t19 -6.5q9 0 9 12v40q0 12 -7 16
q-58 35 -110 35q-54 0 -89 -24.5t-52 -59t-17 -64.5q0 -46 21.5 -76t52 -47.5t58 -24.5t38.5 -7q10 0 17 9z" />
</svg>
