<?xml version="1.0" standalone="no"?>
<!DOCTYPE svg PUBLIC "-//W3C//DTD SVG 1.1//EN" "http://www.w3.org/Graphics/SVG/1.1/DTD/svg11.dtd" >
<svg xmlns="http://www.w3.org/2000/svg" xmlns:xlink="http://www.w3.org/1999/xlink" version="1.1" viewBox="-10 0 504 1000">
   <path fill="currentColor"
d="M365 228q5 -17 8 -44.5t3 -58.5q0 -19 -1.5 -38.5t-3.5 -38.5v-3q0 -10 9 -16q15 -11 32.5 -18t32.5 -7q17 0 28 9.5t11 32.5q0 22 -8.5 55.5t-23 65.5t-32.5 52q-3 4 -6.5 5t-8.5 2z" />
</svg>
