<?xml version="1.0" standalone="no"?>
<!DOCTYPE svg PUBLIC "-//W3C//DTD SVG 1.1//EN" "http://www.w3.org/Graphics/SVG/1.1/DTD/svg11.dtd" >
<svg xmlns="http://www.w3.org/2000/svg" xmlns:xlink="http://www.w3.org/1999/xlink" version="1.1" viewBox="-10 0 628 1000">
   <path fill="currentColor"
d="M299 101q3 -10 10 -10t10 10l287 682q2 4 2 7q0 10 -13 10h-572q-13 0 -13 -8q0 -5 2 -9zM309 336l-154 365h308z" />
</svg>
