<?xml version="1.0" standalone="no"?>
<!DOCTYPE svg PUBLIC "-//W3C//DTD SVG 1.1//EN" "http://www.w3.org/Graphics/SVG/1.1/DTD/svg11.dtd" >
<svg xmlns="http://www.w3.org/2000/svg" xmlns:xlink="http://www.w3.org/1999/xlink" version="1.1" viewBox="-10 0 610 1000">
   <path fill="currentColor"
d="M502 598q0 26 3.5 51.5t16 43t39.5 20.5q12 1 12 13v33q0 14 -15 14q-49 0 -81.5 5.5t-56 14t-46.5 18.5q-2 2 -8 2h-2q-2 0 -2 -3l16 -126q-14 28 -39 58t-60.5 50.5t-81.5 20.5h-29v172q0 15 -15 15h-111q-15 0 -15 -15v-670q0 -15 15 -15h111q15 0 15 15v291
q0 27 2 54.5t17 46t53 18.5q25 0 49.5 -12.5t44 -32t27.5 -40.5v-185q0 -41 -18 -68t-55 -27h-2q-15 0 -15 -15v-30q0 -15 15 -15h201q15 0 15 15v283z" />
</svg>
