<?xml version="1.0" standalone="no"?>
<!DOCTYPE svg PUBLIC "-//W3C//DTD SVG 1.1//EN" "http://www.w3.org/Graphics/SVG/1.1/DTD/svg11.dtd" >
<svg xmlns="http://www.w3.org/2000/svg" xmlns:xlink="http://www.w3.org/1999/xlink" version="1.1" viewBox="-10 0 417 1000">
   <path fill="currentColor"
d="M284 645q0 40 15 67.5t52 27.5h6q15 0 15 15v30q0 15 -15 15h-307q-15 0 -15 -15v-30q0 -15 15 -15h7q38 0 52.5 -27.5t14.5 -67.5v-440q0 -40 -14.5 -67.5t-52.5 -27.5h-7q-15 0 -15 -15v-30q0 -15 15 -15h307q15 0 15 15v30q0 15 -15 15h-6q-37 0 -52 27.5t-15 67.5
v440zM88 -190q25 0 50 25t25 50t-25 50t-50 25t-50 -25t-25 -50q0 -14 6 -25t19 -25q24 -25 50 -25zM320 -190q26 0 51 25t25 50t-25 50t-51 25q-25 0 -50 -25t-25 -50t25 -50t50 -25zM133 -238q32 -41 50.5 -69t31 -53.5t25.5 -57.5q4 -9 15.5 -11.5t21.5 -2.5
q29 0 49.5 12.5t20.5 38.5q0 38 -24.5 68.5t-59 53t-65.5 36.5q-4 2 -8.5 4t-9.5 2q-4 0 -10 -3z" />
</svg>
