<?xml version="1.0" standalone="no"?>
<!DOCTYPE svg PUBLIC "-//W3C//DTD SVG 1.1//EN" "http://www.w3.org/Graphics/SVG/1.1/DTD/svg11.dtd" >
<svg xmlns="http://www.w3.org/2000/svg" xmlns:xlink="http://www.w3.org/1999/xlink" version="1.1" viewBox="-10 0 592 1000">
   <path fill="currentColor"
d="M557 300q15 0 15 15v30q0 15 -15 15h-14q-16 0 -28 12.5t-30 49.5l-290 584q-6 13 -20 7l-51 -26q-14 -6 -8 -20l112 -240l-147 -304q-18 -37 -28 -50t-30 -13h-2q-15 0 -15 -15v-30q0 -15 15 -15h231q15 0 15 15v30q0 15 -15 15h-2q-32 0 -32 26q0 13 7 30.5t16 37.5
l67 146l72 -148q11 -21 18 -39.5t7 -31.5q0 -21 -23 -21h-18q-15 0 -15 -15v-30q0 -15 15 -15h193zM340 127q17 28 32 28q11 0 15 -7.5t4 -15.5q0 -11 -3.5 -21.5t-11.5 -20.5q8 -10 23.5 -20.5t31.5 -10.5q9 0 21 11t21 28.5t9 37.5q0 49 -30 77t-68 28q-34 0 -55.5 -11
t-34 -27t-20.5 -29q-9 -16 -16.5 -22t-15.5 -6q-10 0 -14.5 7.5t-4.5 15.5q0 10 3.5 20.5t11.5 21.5q-8 10 -23.5 20.5t-32.5 10.5q-8 0 -20 -11t-21 -28.5t-9 -36.5q0 -50 30.5 -78t67.5 -28q35 0 56.5 11.5t34 27t19.5 28.5z" />
</svg>
