<?xml version="1.0" standalone="no"?>
<!DOCTYPE svg PUBLIC "-//W3C//DTD SVG 1.1//EN" "http://www.w3.org/Graphics/SVG/1.1/DTD/svg11.dtd" >
<svg xmlns="http://www.w3.org/2000/svg" xmlns:xlink="http://www.w3.org/1999/xlink" version="1.1" viewBox="-10 0 733 1000">
   <path fill="currentColor"
d="M619 277q-3 1 -6 2.5t-6 1.5q-8 0 -17 -12q-64 -80 -126 -115t-128 -35q-40 0 -68.5 21t-28.5 66q0 37 23 61t59.5 39.5t74.5 26.5q57 16 112.5 36t100.5 47.5t72 67t27 95.5q0 68 -34.5 121t-99.5 83t-157 30q-45 0 -84.5 -11.5t-76.5 -29.5q-8 -4 -15 -4q-9 0 -9 10
q0 3 2 11q3 7 3 12q0 11 -17 11h-50q-18 0 -25 -14l-121 -227q-4 -8 -4 -12q0 -11 11 -17l44 -25q3 -2 6 -3t6 -1q10 0 17 12q68 103 150.5 153t168.5 50q65 0 100 -29.5t35 -74.5q0 -44 -22 -69t-68 -42t-118 -38q-49 -14 -97 -34t-87 -48.5t-62.5 -68t-23.5 -93.5
q0 -66 33.5 -109t90.5 -63.5t129 -20.5q56 0 95 14t60 26q17 10 23 10q5 0 5 -6q0 -5 -2.5 -14t-2.5 -19q0 -15 18 -15h36q18 0 25 17l70 179q2 4 3 7.5t1 6.5q0 9 -11 15zM369 -190q26 0 51 25t25 50t-25 50t-51 25q-24 0 -50 -25q-25 -24 -25 -50q0 -25 25 -50t50 -25z
" />
</svg>
