<?xml version="1.0" standalone="no"?>
<!DOCTYPE svg PUBLIC "-//W3C//DTD SVG 1.1//EN" "http://www.w3.org/Graphics/SVG/1.1/DTD/svg11.dtd" >
<svg xmlns="http://www.w3.org/2000/svg" xmlns:xlink="http://www.w3.org/1999/xlink" version="1.1" viewBox="-10 0 525 1000">
   <path fill="currentColor"
d="M175 621q17 42 54.5 75t95.5 33q32 0 67 -18t61 -56q3 -5 8 -5t10.5 3t29.5 17q4 3 4 8q0 7 -6 17q-28 52 -76 85t-125 33q-83 0 -143 -37t-92.5 -98t-32.5 -133q0 -69 20.5 -118.5t54.5 -80t76.5 -45t86.5 -14.5q50 0 88 19.5t64.5 49.5t40 63.5t13.5 62.5q0 8 -9 12z
M324 478q0 -48 -23 -79t-58 -31q-41 0 -65 32.5t-24 81.5q0 15 1.5 37t7.5 40zM405 170q0 15 -15 15h-268q-15 0 -15 -15v-60q0 -15 15 -15h268q15 0 15 15v60zM185 12q32 -41 50.5 -69t31 -53.5t25.5 -57.5q4 -9 15.5 -11.5t21.5 -2.5q29 0 49.5 12.5t20.5 38.5
q0 38 -24.5 68.5t-59 53t-65.5 36.5q-4 2 -8.5 4t-9.5 2q-4 0 -10 -3z" />
</svg>
