<?xml version="1.0" standalone="no"?>
<!DOCTYPE svg PUBLIC "-//W3C//DTD SVG 1.1//EN" "http://www.w3.org/Graphics/SVG/1.1/DTD/svg11.dtd" >
<svg xmlns="http://www.w3.org/2000/svg" xmlns:xlink="http://www.w3.org/1999/xlink" version="1.1" viewBox="-10 0 393 1000">
   <path fill="currentColor"
d="M44 527q-8 -2 -12 -5.5t-7 -7.5q-5 -10 -5 -25q0 -25 19.5 -47t55 -36t82.5 -14q77 0 117.5 25.5t40.5 76.5q0 28 -15 45t-38 25.5t-48 14.5q28 1 55.5 11.5t45.5 32.5t18 60q0 45 -29.5 74t-77.5 42.5t-105 13.5q-31 0 -58 -6t-46 -13q-11 -3 -12 -11l-5 -40q-1 -5 3 -8
t9 -1q18 7 44.5 14.5t57.5 7.5q39 0 70.5 -17.5t31.5 -57.5q0 -26 -18 -42t-50 -16q-22 0 -41 7t-27 7q-9 0 -11 -8l-5 -32q-1 -6 1.5 -8.5t6.5 -3.5q65 -18 99.5 -36.5t34.5 -55.5q0 -30 -14 -45.5t-39 -15.5q-21 0 -40.5 10.5t-19.5 36.5q0 20 9 36.5t9 21.5q0 7 -7 6z
" />
</svg>
