<?xml version="1.0" standalone="no"?>
<!DOCTYPE svg PUBLIC "-//W3C//DTD SVG 1.1//EN" "http://www.w3.org/Graphics/SVG/1.1/DTD/svg11.dtd" >
<svg xmlns="http://www.w3.org/2000/svg" xmlns:xlink="http://www.w3.org/1999/xlink" version="1.1" viewBox="-10 0 579 1000">
   <path fill="currentColor"
d="M517 799q2 4 2 8q0 13 -13 13q-4 0 -10 -3l-439 -253q-7 -4 -7 -10q0 -7 7 -10l439 -253q4 -2 8 -2q15 0 15 13q0 3 -2 7l-107 245z" />
</svg>
