<?xml version="1.0" standalone="no"?>
<!DOCTYPE svg PUBLIC "-//W3C//DTD SVG 1.1//EN" "http://www.w3.org/Graphics/SVG/1.1/DTD/svg11.dtd" >
<svg xmlns="http://www.w3.org/2000/svg" xmlns:xlink="http://www.w3.org/1999/xlink" version="1.1" viewBox="-10 0 610 1000">
   <path fill="currentColor"
d="M300 180q-72 0 -98.5 65.5t-26.5 186.5q0 85 10.5 140.5t29.5 88t44 49.5q7 4 11 8t4 12v54q0 15 -15 15h-228q-15 0 -15 -15v-59q0 -15 15 -15h104q-39 -22 -64 -67.5t-37.5 -101.5t-12.5 -109q0 -80 24 -143t64 -106.5t89.5 -66.5t101.5 -23t101.5 23t89.5 66.5
t64 106.5t24 143q0 53 -12 109t-37.5 101.5t-64.5 67.5h104q15 0 15 15v59q0 15 -15 15h-228q-15 0 -15 -15v-54q0 -8 4 -12t11 -8q25 -17 44 -49.5t29.5 -88t10.5 -140.5q0 -121 -26.5 -186.5t-98.5 -65.5z" />
</svg>
