<?xml version="1.0" standalone="no"?>
<!DOCTYPE svg PUBLIC "-//W3C//DTD SVG 1.1//EN" "http://www.w3.org/Graphics/SVG/1.1/DTD/svg11.dtd" >
<svg xmlns="http://www.w3.org/2000/svg" xmlns:xlink="http://www.w3.org/1999/xlink" version="1.1" viewBox="-10 0 614 1000">
   <path fill="currentColor"
d="M579 300q15 0 15 15v30q0 15 -15 15h-15q-16 0 -28.5 12t-29.5 50l-169 367q-5 11 -15 11h-57q-11 0 -16 -11l-168 -366q-17 -38 -27.5 -50.5t-30.5 -12.5h-2q-15 0 -15 -15v-30q0 -15 15 -15h231q15 0 15 15v30q0 15 -15 15h-2q-19 0 -26.5 7.5t-7.5 21.5q0 13 5.5 29
t15.5 37l92 195l84 -195q10 -23 17 -42t7 -32q0 -21 -22 -21h-20q-15 0 -15 -15v-30q0 -15 15 -15h184z" />
</svg>
