<?xml version="1.0" standalone="no"?>
<!DOCTYPE svg PUBLIC "-//W3C//DTD SVG 1.1//EN" "http://www.w3.org/Graphics/SVG/1.1/DTD/svg11.dtd" >
<svg xmlns="http://www.w3.org/2000/svg" xmlns:xlink="http://www.w3.org/1999/xlink" version="1.1" viewBox="-10 0 946 1000">
   <path fill="currentColor"
d="M911 300q15 0 15 15v30q0 15 -15 15h-15q-16 0 -28.5 12t-29.5 50l-159 367q-4 11 -15 11h-57q-11 0 -16 -11l-132 -306l-132 306q-4 11 -16 11h-56q-11 0 -16 -11l-158 -366q-16 -38 -27 -50.5t-31 -12.5h-2q-15 0 -15 -15v-30q0 -15 15 -15h231q15 0 15 15v30
q0 15 -15 15h-2q-19 0 -26.5 7.5t-7.5 21.5q0 13 6.5 30t14.5 36l80 187l86 -213q13 -30 13 -48q0 -21 -21 -21h-22q-13 0 -13 -15v-30q0 -15 14 -15h240q15 0 15 15v30q0 15 -15 15h-12q-19 0 -26.5 7.5t-7.5 21.5q0 13 6 30t14 36l81 187l86 -213q13 -30 13 -48
q0 -21 -21 -21h-20q-15 0 -15 -15v-30q0 -15 15 -15h184zM381 60q25 0 50 25t25 50t-25 50t-50 25t-50 -25t-25 -50q0 -14 6 -25t19 -25q24 -25 50 -25zM613 60q26 0 51 25t25 50t-25 50t-51 25q-25 0 -50 -25t-25 -50t25 -50t50 -25z" />
</svg>
