<?xml version="1.0" standalone="no"?>
<!DOCTYPE svg PUBLIC "-//W3C//DTD SVG 1.1//EN" "http://www.w3.org/Graphics/SVG/1.1/DTD/svg11.dtd" >
<svg xmlns="http://www.w3.org/2000/svg" xmlns:xlink="http://www.w3.org/1999/xlink" version="1.1" viewBox="-10 0 592 1000">
   <path fill="currentColor"
d="M557 300q15 0 15 15v30q0 15 -15 15h-14q-16 0 -28 12.5t-30 49.5l-290 584q-6 13 -20 7l-51 -26q-14 -6 -8 -20l112 -240l-147 -304q-18 -37 -28 -50t-30 -13h-2q-15 0 -15 -15v-30q0 -15 15 -15h231q15 0 15 15v30q0 15 -15 15h-2q-32 0 -32 26q0 13 7 30.5t16 37.5
l67 146l72 -148q11 -21 18 -39.5t7 -31.5q0 -21 -23 -21h-18q-15 0 -15 -15v-30q0 -15 15 -15h193zM191 60q25 0 50 25t25 50t-25 50t-50 25t-50 -25t-25 -50q0 -14 6 -25t19 -25q24 -25 50 -25zM423 60q26 0 51 25t25 50t-25 50t-51 25q-25 0 -50 -25t-25 -50t25 -50
t50 -25z" />
</svg>
