<?xml version="1.0" standalone="no"?>
<!DOCTYPE svg PUBLIC "-//W3C//DTD SVG 1.1//EN" "http://www.w3.org/Graphics/SVG/1.1/DTD/svg11.dtd" >
<svg xmlns="http://www.w3.org/2000/svg" xmlns:xlink="http://www.w3.org/1999/xlink" version="1.1" viewBox="-10 0 612 1000">
   <path fill="currentColor"
d="M301 250q57 0 107 22t88 61t59.5 90.5t21.5 110.5t-21.5 110.5t-59.5 90.5t-88 61t-107 22t-107 -22t-88 -61t-59.5 -90.5t-21.5 -110.5t21.5 -110.5t59.5 -90.5t88 -61t107 -22zM300 326q-46 0 -76 31.5t-44.5 79.5t-14.5 99t15.5 99.5t46 80.5t76.5 32q35 0 59.5 -19
t41 -51t24 -70t7.5 -76q0 -51 -14.5 -98.5t-44.5 -77.5t-76 -30z" />
</svg>
